certifi==2018.11.29
chardet==3.0.4
Django==2.1
django-cors-headers==2.4.0
django-filter==2.0.0
django-rest-auth==0.9.3
djangorestframework==3.9.0
djangorestframework-jwt==1.11.0
idna==2.8
Markdown==3.0.1
PyJWT==1.7.1
pytz==2018.7
requests==2.21.0
six==1.12.0
urllib3==1.24.1
psycopg2-binary
psycopg2
Pillow
django-import-export
django-simple-log==0.3.4
